{
  "profiles": {
    "IIS Express": {
      "commandName": "IISExpress",
      "launchBrowser": true,
      "environmentVariables": {
        "Mnemosyne_ConnectionStrings__MnemosyneDb": "Data Source=(localdb)\\MSSQLLocalDB;Initial Catalog=Mnemosyne;Integrated Security=True;"
      }
    }
  },
  "iisSettings": {
    "windowsAuthentication": false,
    "anonymousAuthentication": true,
    "iisExpress": {
      "applicationUrl": "http://localhost:63217",
      "sslPort": 44302
    }
  }
}